14 30 0
15 30 1
17 30 2
21 30 3
22 30 4
23 30 5
25 30 6
31 30 7
32 30 8
38 30 9
47 30 10
56 30 11
59 30 12
65 30 13
66 30 14
69 30 15
78 30 16
82 30 17
85 30 18
94 30 19
95 30 20
114 30 21
122 30 22
142 30 23
147 30 24
160 30 25
171 30 26
192 30 27
199 30 28
209 30 29
220 30 30
234 30 31
235 30 32
248 30 33
273 30 34
284 30 35
289 30 36
291 30 37
295 30 38
301 30 39
303 30 40
305 30 41
313 30 42
318 30 43
334 30 44
343 30 45
348 30 46
349 30 47
353 30 48
363 30 49
365 30 50
371 30 51
394 30 52
395 30 53
397 30 54
403 30 55
404 30 56
409 30 57
417 30 58
433 30 59
447 30 60
449 30 61
467 30 62
468 30 63
481 30 64
487 30 65
492 30 66
494 30 67
495 30 68
496 30 69
499 30 70
510 30 71
516 30 72
534 30 73
539 30 74
545 30 75
553 30 76
562 30 77
565 30 78
567 30 79
600 30 80
614 30 81
632 30 82
649 30 83
650 30 84
659 30 85
661 30 86
665 30 87
676 30 88
679 30 89
719 30 90
735 30 91
742 30 92
800 30 93
801 30 94
844 30 95
861 30 96
871 30 97
873 30 98
894 30 99
918 30 100
924 30 101
951 30 102
953 30 103
958 30 104
971 30 105
973 30 106
975 30 107
977 30 108
978 30 109
981 30 110
985 30 111
986 30 112
987 30 113
988 30 114
991 30 115
992 30 116
993 30 117
997 30 118
1003 30 119
1008 30 120
1011 30 121
1014 30 122
1018 30 123
1023 30 124
1025 30 125
1027 30 126
1031 30 127
1032 30 128
1033 30 129
1034 30 130
1035 30 131
1037 30 132
1043 30 133
1044 30 134
1050 30 135
1051 30 136
1054 30 137
1059 30 138
1061 30 139
1062 30 140
1066 30 141
1088 30 142
1089 30 143
1090 30 144
1092 30 145
1103 30 146
1113 30 147
1120 30 148
1128 30 149
1135 30 150
1136 30 151
1137 30 152
1140 30 153
1149 30 154
1151 30 155
1153 30 156
1154 30 157
1164 30 158
1170 30 159
1175 30 160
1180 30 161
1181 30 162
1187 30 163
1188 30 164
1194 30 165
1198 30 166
1201 30 167
1204 30 168
1209 30 169
1210 30 170
1213 30 171
1218 30 172
1221 30 173
1223 30 174
1224 30 175
1228 30 176
1231 30 177
1245 30 178
1246 30 179
1250 30 180
1258 30 181
1261 30 182
1264 30 183
1270 30 184
1272 30 185
1275 30 186
1279 30 187
1281 30 188
1287 30 189
1288 30 190
1289 30 191
1291 30 192
1293 30 193
1297 30 194
1301 30 195
1302 30 196
1303 30 197
1305 30 198
1306 30 199
1314 30 200
1318 30 201
1321 30 202
1322 30 203
1324 30 204
1326 30 205
1330 30 206
1335 30 207
1336 30 208
1337 30 209
1339 30 210
1341 30 211
1346 30 212
1348 30 213
1351 30 214
1356 30 215
1359 30 216
1361 30 217
1362 30 218
1368 30 219
1370 30 220
1371 30 221
1373 30 222
1377 30 223
1382 30 224
1383 30 225
1384 30 226
1389 30 227
1392 30 228
1393 30 229
1394 30 230
1395 30 231
1410 30 232
1411 30 233
1415 30 234
1420 30 235
1422 30 236
1423 30 237
1435 30 238
1439 30 239
1440 30 240
1443 30 241
1446 30 242
1447 30 243
1448 30 244
1454 30 245
1455 30 246
1467 30 247
1468 30 248
1469 30 249
1470 30 250
1471 30 251
1472 30 252
1474 30 253
1481 30 254
1488 30 255
1489 30 256
1490 30 257
1493 30 258
1496 30 259
1498 30 260
1499 30 261
1508 30 262
1513 30 263
1517 30 264
1519 30 265
1524 30 266
1531 30 267
1535 30 268
1537 30 269
1538 30 270
1542 30 271
1544 30 272
1549 30 273
1550 30 274
1559 30 275
1560 30 276
1565 30 277
1566 30 278
1568 30 279
1569 30 280
1574 30 281
1578 30 282
1580 30 283
1581 30 284
1582 30 285
1585 30 286
1587 30 287
1588 30 288
1589 30 289
1590 30 290
1591 30 291
1601 30 292
1603 30 293
1604 30 294
1607 30 295
1611 30 296
1614 30 297
1624 30 298
1625 30 299
1628 30 300
1629 30 301
1631 30 302
1633 30 303
1634 30 304
1639 30 305
1641 30 306
1642 30 307
1646 30 308
1648 30 309
1649 30 310
1651 30 311
1657 30 312
1660 30 313
1664 30 314
1672 30 315
1673 30 316
1675 30 317
1686 30 318
1689 30 319
1691 30 320
1696 30 321
1698 30 322
1700 30 323
1708 30 324
1711 30 325
1713 30 326
1714 30 327
1715 30 328
1722 30 329
1723 30 330
1725 30 331
1726 30 332
1731 30 333
1743 30 334
1744 30 335
1749 30 336
1755 30 337
1757 31 338
1761 30 339
1770 30 340
1784 30 341
1793 30 342
1805 30 343
1807 30 344
1809 30 345
1810 30 346
1811 30 347
1812 30 348
1815 30 349
1817 30 350
1839 30 351
1840 30 352
1842 30 353
1844 30 354
1852 30 355
1854 30 356
1862 30 357
1871 30 358
1873 30 359
1874 30 360
1875 30 361
1877 30 362
1882 30 363
1884 30 364
1885 30 365
1886 30 366
1888 30 367
1895 30 368
1899 30 369
1903 30 370
1908 30 371
1912 30 372
1914 30 373
1916 30 374
1927 30 375
1929 30 376
1934 30 377
1936 30 378
1938 30 379
1944 30 380
1946 30 381
1947 30 382
1951 30 383
1956 30 384
1960 30 385
1962 30 386
1967 30 387
1977 30 388
1984 30 389
1985 30 390
1986 30 391
1990 30 392
1991 30 393
1993 30 394
1994 30 395
1996 30 396
1997 30 397
1998 30 398
1999 30 399
2002 30 400
2006 30 401
2011 30 402
2014 30 403
2015 30 404
2017 30 405
2019 30 406
2020 30 407
2026 30 408
2030 30 409
2031 30 410
2034 30 411
2044 30 412
2046 30 413
2054 30 414
2055 30 415
2061 30 416
2063 30 417
2065 30 418
2066 30 419
2067 30 420
2070 30 421
2072 30 422
2073 30 423
2078 30 424
2079 30 425
2083 30 426
2084 30 427
2086 30 428
2087 30 429
2095 30 430
2097 30 431
2101 30 432
2110 30 433
2111 30 434
2114 31 435
2117 30 436
2119 30 437
2120 30 438
2122 30 439
2124 30 440
2125 30 441
2130 30 442
2134 30 443
2136 30 444
2141 30 445
2150 30 446
2153 30 447
2155 30 448
2156 30 449
2158 30 450
2160 30 451
2167 30 452
2168 30 453
2173 30 454
2174 30 455
2180 30 456
2182 30 457
2190 30 458
2193 30 459
2194 30 460
2195 30 461
2201 30 462
2202 30 463
2219 30 464
2221 30 465
2225 30 466
2231 30 467
2235 30 468
2236 30 469
2238 30 470
2239 30 471
2240 30 472
2242 30 473
2243 30 474
2245 30 475
2246 30 476
2249 30 477
2250 30 478
2253 30 479
2259 30 480
2261 30 481
2263 30 482
2270 30 483
2279 30 484
2288 30 485
2295 30 486
2296 30 487
2301 30 488
2303 30 489
2307 30 490
2309 30 491
2311 30 492
2314 30 493
2316 30 494
2318 30 495
2325 30 496
2331 30 497
2332 30 498
2334 30 499
2335 30 500
2337 30 501
2348 30 502
2349 30 503
2353 30 504
2373 30 505
2374 30 506
2393 30 507
2398 30 508
2406 30 509
2411 30 510
2416 30 511
2419 30 512
2425 30 513
2429 30 514
2433 30 515
2443 30 516
2445 30 517
2451 30 518
2461 30 519
2463 30 520
2464 30 521
2467 30 522
2471 30 523
2472 30 524
2483 30 525
2484 30 526
2496 30 527
2507 30 528
2509 30 529
2516 30 530
2518 30 531
2520 30 532
2522 30 533
2523 30 534
2524 30 535
2529 30 536
2533 30 537
2534 30 538
2537 30 539
2546 30 540
2547 30 541
2550 30 542
2562 30 543
2570 30 544
2572 30 545
2573 30 546
2574 30 547
2579 30 548
2580 30 549
2588 30 550
2599 30 551
2602 30 552
2603 30 553
2610 30 554
2611 30 555
2612 30 556
2613 30 557
2643 30 558
2758 30 559
2761 30 560
2762 30 561
2772 30 562
2779 30 563
2790 30 564
2791 30 565
2792 30 566
2793 30 567
2805 30 568
2808 30 569
2810 30 570
2813 30 571
2819 30 572
2820 35 573
2823 30 574
2831 30 575
2837 30 576
2843 30 577
2844 30 578
2846 30 579
2847 30 580
2859 30 581
2860 30 582
2861 30 583
2863 30 584
2867 30 585
2870 30 586
2879 30 587
2880 30 588
2882 30 589
2883 30 590
2884 30 591
2887 30 592
2892 30 593
2897 30 594
2898 30 595
2899 30 596
2908 30 597
2909 30 598
2910 30 599
2914 30 600
2921 30 601
2924 30 602
2926 30 603
2930 30 604
2937 30 605
2938 30 606
2945 30 607
2952 30 608
2955 30 609
2957 30 610
2960 30 611
2965 30 612
2969 30 613
2972 30 614
2973 30 615
2981 30 616
2983 30 617
2984 30 618
2987 30 619
2996 30 620
3010 30 621
3014 30 622
3017 30 623
3020 30 624
3022 30 625
3024 30 626
3027 30 627
3028 30 628
3029 30 629
3033 30 630
3034 30 631
3035 30 632
3037 30 633
3040 30 634
3043 30 635
3047 30 636
3051 30 637
3052 30 638
3055 30 639
3056 30 640
3059 30 641
3067 30 642
3080 30 643
3081 30 644
3084 30 645
3090 30 646
3098 30 647
3111 30 648
3113 30 649
3117 30 650
3118 30 651
3119 30 652
3127 30 653
3129 30 654
3130 30 655
3134 30 656
3135 30 657
3140 30 658
3145 30 659
3148 30 660
3149 30 661
3157 30 662
3166 30 663
3167 30 664
3168 30 665
3175 30 666
3181 30 667
3182 30 668
3184 30 669
3185 30 670
3186 30 671
3188 30 672
3195 30 673
3198 30 674
3203 30 675
3205 30 676
3207 30 677
3211 30 678
3212 30 679
3214 30 680
3227 35 681
3231 30 682
3238 30 683
3248 30 684
3255 30 685
3263 30 686
3270 30 687
3272 30 688
3278 30 689
3279 30 690
3280 30 691
3294 30 692
3304 30 693
3305 30 694
3312 30 695
3315 30 696
3316 30 697
3317 30 698
3324 30 699
3325 30 700
3328 30 701
3329 30 702
3330 30 703
3332 30 704
3336 30 705
3338 30 706
3356 30 707
3357 30 708
3364 30 709
3376 30 710
3377 30 711
3383 30 712
3386 30 713
3389 30 714
3397 30 715
3398 30 716
3400 30 717
3404 30 718
3407 30 719
3410 30 720
3413 30 721
3421 30 722
3431 30 723
3432 30 724
3436 30 725
3438 30 726
3440 30 727
3449 30 728
3465 30 729
3469 30 730
3475 30 731
3477 30 732
3478 30 733
3480 30 734
3485 30 735
3490 30 736
3491 30 737
3496 30 738
3500 30 739
3501 30 740
3504 30 741
3508 30 742
3521 30 743
3522 30 744
3524 30 745
3542 30 746
3546 30 747
3556 30 748
3562 30 749
3569 30 750
3575 30 751
3587 30 752
3600 30 753
3614 30 754
3619 30 755
3620 30 756
3623 30 757
3625 30 758
3641 30 759
3643 30 760
3648 30 761
3661 30 762
3664 30 763
3670 30 764
3678 30 765
3681 30 766
3696 30 767
3697 30 768
3699 34 769
3701 30 770
3705 30 771
3706 30 772
3708 30 773
3714 30 774
3719 30 775
3725 30 776
3727 30 777
3730 30 778
3745 34 779
3751 30 780
3755 30 781
3760 30 782
3762 30 783
3768 30 784
3782 35 785
3788 30 786
3795 30 787
3808 30 788
3811 30 789
3817 30 790
3826 30 791
3835 30 792
3845 30 793
3846 30 794
3847 30 795
3853 30 796
3854 30 797
3857 30 798
3858 30 799
3859 30 800
3862 30 801
3864 30 802
3875 30 803
3880 30 804
3882 30 805
3886 30 806
3895 30 807
3896 30 808
3901 30 809
3911 30 810
3912 30 811
3915 30 812
3928 30 813
3929 30 814
3930 30 815
3941 30 816
3957 30 817
3959 30 818
3960 30 819
3962 30 820
3980 30 821
3981 30 822
3984 30 823
3986 30 824
3989 30 825
3993 30 826
3994 30 827
4014 30 828
4017 30 829
4027 30 830
4028 30 831
4030 30 832
4031 30 833
4035 30 834
4048 30 835
4049 30 836
4051 30 837
4054 30 838
4055 30 839
4061 30 840
4068 30 841
4070 30 842
4076 30 843
4077 30 844
4080 30 845
4087 30 846
4094 30 847
4099 30 848
4102 30 849
4110 30 850
4112 30 851
4114 30 852
4119 30 853
4125 30 854
4126 31 855
4135 30 856
4136 30 857
4137 30 858
4138 30 859
4139 30 860
4141 30 861
4143 30 862
4146 30 863
4147 30 864
4149 30 865
4150 30 866
4151 30 867
4153 30 868
4154 30 869
4157 30 870
4161 30 871
4162 30 872
4163 30 873
4164 30 874
4165 30 875
4166 30 876
4168 30 877
4172 30 878
4174 30 879
4177 30 880
4181 30 881
4183 30 882
4190 30 883
4197 30 884
4204 30 885
4209 30 886
4210 30 887
4213 30 888
4219 30 889
4220 30 890
4221 30 891
4225 30 892
4236 30 893
4238 30 894
4242 30 895
4244 30 896
4245 30 897
4247 30 898
4251 30 899
4252 30 900
4255 30 901
4256 30 902
4257 30 903
4258 30 904
4261 30 905
4262 31 906
4263 30 907
4265 30 908
4268 30 909
4276 30 910
4286 30 911
4288 30 912
4290 30 913
4292 30 914
4293 30 915
4302 30 916
4303 30 917
4304 30 918
4306 30 919
4308 30 920
4309 30 921
4310 30 922
4311 30 923
4312 30 924
4314 30 925
4315 30 926
4316 30 927
4321 30 928
4323 30 929
4326 30 930
4328 30 931
4334 30 932
4336 30 933
4338 30 934
4346 30 935
4352 30 936
4355 30 937
4357 30 938
4372 30 939
4373 30 940
4374 30 941
4388 30 942
4392 30 943
4393 30 944
4395 30 945
4407 30 946
4410 30 947
4414 30 948
4418 30 949
4419 30 950
4421 30 951
4423 30 952
4424 30 953
4431 30 954
4433 30 955
4435 30 956
4436 30 957
4437 30 958
4438 30 959
4439 30 960
4441 30 961
4446 30 962
4447 30 963
4448 30 964
4450 30 965
4453 30 966
4458 30 967
4460 30 968
4462 30 969
4465 30 970
4472 30 971
4473 30 972
4474 30 973
4478 30 974
4483 30 975
4487 30 976
4493 30 977
4496 30 978
4498 30 979
4511 30 980
4514 30 981
4516 30 982
4518 30 983
4521 30 984
4527 30 985
4532 30 986
4537 30 987
4539 30 988
4543 30 989
4547 30 990
4549 30 991
4551 30 992
4554 30 993
4555 30 994
4558 30 995
4560 30 996
4561 30 997
4562 30 998
4566 30 999
4571 30 1000
4573 30 1001
4577 30 1002
4580 30 1003
4582 30 1004
4583 30 1005
4593 30 1006
4598 30 1007
4600 30 1008
4601 30 1009
4602 30 1010
4609 30 1011
4610 30 1012
4612 30 1013
4620 30 1014
4625 30 1015
4628 30 1016
4636 30 1017
4637 30 1018
4643 30 1019
4647 30 1020
4648 30 1021
4650 30 1022
4652 30 1023
4664 30 1024
4666 30 1025
4669 30 1026
4670 30 1027
4671 30 1028
4672 30 1029
4686 30 1030
4687 30 1031
4691 30 1032
4692 30 1033
4693 30 1034
4696 30 1035
4697 30 1036
4699 30 1037
4701 30 1038
4702 30 1039
4706 30 1040
4710 30 1041
4712 30 1042
4715 30 1043
4717 30 1044
4719 30 1045
4720 30 1046
4721 30 1047
4722 30 1048
4723 30 1049
4724 30 1050
4731 30 1051
4740 31 1052
4741 30 1053
4744 30 1054
4747 30 1055
4773 30 1056
4782 30 1057
4794 30 1058
4795 30 1059
4798 30 1060
4801 30 1061
4805 30 1062
4808 30 1063
4811 30 1064
4814 30 1065
4816 30 1066
4819 30 1067
4821 30 1068
4824 30 1069
4825 30 1070
4828 30 1071
4832 30 1072
4834 30 1073
4836 30 1074
4842 30 1075
4849 30 1076
4852 30 1077
4853 30 1078
4860 30 1079
4861 30 1080
4863 30 1081
4865 30 1082
4872 30 1083
4874 30 1084
4876 30 1085
4879 30 1086
4884 30 1087
4887 31 1088
4889 30 1089
4891 30 1090
4899 30 1091
4905 30 1092
4908 30 1093
4910 30 1094
4911 30 1095
4913 30 1096
4914 30 1097
4916 30 1098
4920 30 1099
4923 30 1100
4924 30 1101
4931 30 1102
4934 30 1103
4936 30 1104
4941 30 1105
4943 30 1106
4944 30 1107
4945 30 1108
4946 30 1109
4950 30 1110
4951 30 1111
4953 30 1112
4955 30 1113
4959 30 1114
4960 30 1115
4962 30 1116
4972 30 1117
4973 30 1118
4974 30 1119
4975 30 1120
4976 30 1121
4978 31 1122
4981 30 1123
4986 30 1124
4987 30 1125
4988 30 1126
4991 30 1127
4992 30 1128
4996 30 1129
4998 30 1130
4999 30 1131
5001 30 1132
5007 30 1133
5008 30 1134
5018 30 1135
5020 30 1136
5024 30 1137
5025 30 1138
5027 30 1139
5028 30 1140
5029 30 1141
5035 30 1142
5040 30 1143
5041 30 1144
5042 30 1145
5046 30 1146
5047 30 1147
5050 30 1148
5061 30 1149
5071 30 1150
5072 30 1151
5073 30 1152
5078 30 1153
5084 30 1154
5086 30 1155
5088 30 1156
5092 30 1157
5093 30 1158
5094 30 1159
5096 30 1160
5100 30 1161
5101 30 1162
5113 30 1163
5120 30 1164
5122 30 1165
5124 30 1166
5125 30 1167
5126 30 1168
5127 30 1169
5128 30 1170
5131 30 1171
5132 30 1172
5133 30 1173
5135 30 1174
5138 30 1175
5139 30 1176
5140 30 1177
5142 30 1178
5144 30 1179
5145 30 1180
5146 30 1181
5147 30 1182
5148 30 1183
5151 30 1184
5153 30 1185
5157 30 1186
5158 30 1187
5159 30 1188
5161 30 1189
5165 30 1190
5169 30 1191
5170 30 1192
5173 30 1193
5176 30 1194
5178 30 1195
5180 30 1196
5181 30 1197
5182 30 1198
5185 30 1199
5187 30 1200
5189 30 1201
5190 30 1202
5191 30 1203
5193 30 1204
5195 30 1205
5198 30 1206
5199 30 1207
5200 30 1208
5202 30 1209
5204 30 1210
5207 30 1211
5210 30 1212
5218 30 1213
5221 30 1214
5222 30 1215
5223 30 1216
5224 30 1217
5225 30 1218
5226 30 1219
5228 30 1220
5234 30 1221
5235 30 1222
5238 30 1223
5239 30 1224
5240 30 1225
5242 30 1226
5243 30 1227
5246 30 1228
5247 30 1229
5250 30 1230
5252 30 1231
5253 30 1232
5254 30 1233
5256 30 1234
5260 30 1235
5262 30 1236
5263 30 1237
5264 30 1238
5272 30 1239
5273 30 1240
5274 30 1241
5276 30 1242
5281 30 1243
5283 30 1244
5287 30 1245
5291 30 1246
5293 30 1247
5298 30 1248
5301 30 1249
5303 30 1250
5310 30 1251
5311 30 1252
5313 30 1253
5318 30 1254
5320 30 1255
5321 30 1256
5325 30 1257
5326 30 1258
5328 30 1259
5329 30 1260
5334 30 1261
5338 30 1262
5340 30 1263
5341 30 1264
5342 30 1265
5344 30 1266
5346 30 1267
5350 30 1268
5353 30 1269
5354 30 1270
5361 30 1271
5365 30 1272
5369 30 1273
5370 30 1274
5375 30 1275
5382 30 1276
5386 30 1277
5391 30 1278
5394 30 1279
5407 30 1280
5410 30 1281
5414 30 1282
5415 30 1283
5416 30 1284
5418 30 1285
5423 30 1286
5426 30 1287
5427 30 1288
5428 30 1289
5431 30 1290
5433 30 1291
5444 30 1292
5446 30 1293
5447 30 1294
5449 30 1295
5450 30 1296
5451 30 1297
5452 30 1298
5457 30 1299
5459 30 1300
5464 30 1301
5469 30 1302
5471 30 1303
5472 30 1304
5473 30 1305
5474 30 1306
5479 30 1307
5482 30 1308
5485 30 1309
5488 30 1310
5489 30 1311
5491 30 1312
5494 30 1313
5495 30 1314
5504 30 1315
5507 30 1316
5508 30 1317
5509 30 1318
5510 30 1319
5512 30 1320
5519 30 1321
5520 30 1322
5529 30 1323
5530 30 1324
5532 30 1325
5536 30 1326
5537 30 1327
5539 30 1328
5543 30 1329
5544 30 1330
5545 30 1331
5549 30 1332
5551 30 1333
5552 30 1334
5563 30 1335
5566 30 1336
5567 30 1337
5569 30 1338
5570 30 1339
5578 30 1340
5581 30 1341
5582 30 1342
5585 30 1343
5609 30 1344
5611 30 1345
5613 30 1346
5620 30 1347
5625 30 1348
5635 30 1349
5638 30 1350
5640 30 1351
5656 30 1352
5663 30 1353
5672 30 1354
5676 30 1355
5679 30 1356
5688 30 1357
5694 30 1358
5696 30 1359
5702 30 1360
5703 30 1361
5704 30 1362
5705 30 1363
5706 30 1364
5715 30 1365
5729 30 1366
5732 30 1367
5747 30 1368
5748 30 1369
5750 30 1370
5760 30 1371
5765 30 1372
5768 30 1373
5770 30 1374
5774 30 1375
5775 30 1376
5780 30 1377
5784 30 1378
5786 30 1379
5787 30 1380
5794 30 1381
5799 30 1382
5805 30 1383
5815 30 1384
5827 30 1385
5829 30 1386
5833 30 1387
5840 30 1388
5843 30 1389
5866 30 1390
5876 30 1391
5879 30 1392
5883 30 1393
5888 30 1394
5896 30 1395
5897 30 1396
5901 30 1397
5902 30 1398
5903 30 1399
5905 30 1400
5911 30 1401
5921 30 1402
5922 30 1403
5928 30 1404
5932 30 1405
5938 30 1406
5941 30 1407
5946 30 1408
5951 30 1409
5953 30 1410
5960 30 1411
5966 30 1412
5982 30 1413
5986 30 1414
5987 30 1415
6002 30 1416
6005 30 1417
6009 30 1418
6012 30 1419
6023 30 1420
6024 30 1421
6025 30 1422
6031 30 1423
6036 30 1424
6042 30 1425
6043 30 1426
6044 30 1427
6046 30 1428
6058 30 1429
6059 30 1430
6065 30 1431
6066 30 1432
6074 30 1433
6076 30 1434
6077 30 1435
6079 30 1436
6080 30 1437
6081 30 1438
6082 30 1439
6087 30 1440
6088 30 1441
6090 30 1442
6100 30 1443
6108 30 1444
6110 30 1445
6112 30 1446
6119 30 1447
6127 30 1448
6128 30 1449
6134 30 1450
6135 30 1451
6136 30 1452
6137 30 1453
6141 30 1454
6142 30 1455
6143 30 1456
6145 30 1457
6147 30 1458
6151 30 1459
6152 30 1460
6155 30 1461
6159 30 1462
6161 30 1463
6162 30 1464
6163 30 1465
6164 30 1466
6165 30 1467
6166 30 1468
6172 30 1469
6177 30 1470
6180 30 1471
6181 30 1472
6182 30 1473
6183 30 1474
6184 30 1475
6185 30 1476
6187 30 1477
6188 30 1478
6190 30 1479
6191 30 1480
6194 30 1481
6195 30 1482
6198 30 1483
6199 30 1484
6200 30 1485
6202 30 1486
6204 30 1487
6207 30 1488
6214 30 1489
6219 30 1490
6225 30 1491
6230 30 1492
6231 30 1493
6232 30 1494
6235 30 1495
6236 30 1496
6241 30 1497
6256 30 1498
6262 30 1499
6263 30 1500
6266 30 1501
6267 30 1502
6280 30 1503
6282 30 1504
6283 30 1505
6284 30 1506
6286 30 1507
6288 30 1508
6290 30 1509
6291 30 1510
6292 30 1511
6296 30 1512
6298 30 1513
6299 30 1514
6300 30 1515
6301 30 1516
6305 30 1517
6308 30 1518
6311 30 1519
6314 30 1520
6316 30 1521
6318 30 1522
6320 30 1523
6322 30 1524
6324 30 1525
6325 30 1526
6327 30 1527
6330 30 1528
6334 30 1529
6335 30 1530
6337 30 1531
6339 30 1532
6340 30 1533
6343 30 1534
6344 30 1535
6346 30 1536
6351 30 1537
6353 30 1538
6354 30 1539
6355 30 1540
6359 30 1541
6361 30 1542
6363 30 1543
6364 30 1544
6365 30 1545
6367 30 1546
6368 30 1547
6369 30 1548
6370 30 1549
6371 30 1550
6385 30 1551
6386 30 1552
6387 30 1553
6394 30 1554
6397 30 1555
6398 30 1556
6399 30 1557
6400 30 1558
6403 30 1559
6404 30 1560
6407 30 1561
6411 30 1562
6412 30 1563
6415 30 1564
6417 30 1565
6418 30 1566
6420 30 1567
6421 30 1568
6422 30 1569
6424 30 1570
6427 30 1571
6429 30 1572
6430 30 1573
6438 30 1574
6439 30 1575
6440 30 1576
6443 30 1577
6447 30 1578
6449 30 1579
6452 30 1580
6454 30 1581
6458 30 1582
6461 30 1583
6472 30 1584
6474 30 1585
6482 30 1586
6483 30 1587
6492 30 1588
6494 30 1589
6502 30 1590
6524 30 1591
6532 30 1592
6536 30 1593
6543 30 1594
6546 30 1595
6547 30 1596
6548 30 1597
6555 30 1598
6556 30 1599
6558 30 1600
6562 30 1601
6563 30 1602
6565 30 1603
6567 30 1604
6568 31 1605
6574 30 1606
6575 30 1607
6576 30 1608
6583 30 1609
6585 30 1610
6596 30 1611
6603 30 1612
6614 30 1613
6624 30 1614
6628 30 1615
6631 30 1616
6633 30 1617
6637 30 1618
6642 30 1619
6645 30 1620
6648 30 1621
6650 30 1622
6657 30 1623
6658 30 1624
6662 30 1625
6665 30 1626
6672 30 1627
6675 30 1628
6676 30 1629
6677 30 1630
6679 30 1631
6680 30 1632
6681 30 1633
6682 30 1634
6683 30 1635
6688 30 1636
6691 30 1637
6695 30 1638
6696 30 1639
6702 30 1640
6703 30 1641
6704 30 1642
6705 30 1643
6708 30 1644
6714 30 1645
6718 30 1646
6719 30 1647
6725 30 1648
6726 30 1649
6727 30 1650
6736 30 1651
6741 30 1652
6745 30 1653
6746 30 1654
6751 30 1655
6789 30 1656
6792 30 1657
6802 30 1658
6803 30 1659
6806 30 1660
6809 30 1661
6811 30 1662
6814 30 1663
6823 30 1664
6824 30 1665
6844 30 1666
6846 30 1667
6851 30 1668
6857 30 1669
6858 30 1670
6860 30 1671
6864 30 1672
6876 30 1673
6877 30 1674
6878 30 1675
6886 30 1676
6893 30 1677
6894 30 1678
6914 30 1679
6920 30 1680
6921 30 1681
6922 30 1682
6928 30 1683
6936 30 1684
6947 30 1685
6952 30 1686
6955 30 1687
6956 30 1688
6958 30 1689
6973 30 1690
6986 30 1691
6987 30 1692
6988 30 1693
6989 30 1694
6992 30 1695
6994 30 1696
6995 30 1697
6997 30 1698
6999 30 1699
7001 30 1700
7002 30 1701
7003 30 1702
7004 30 1703
7013 30 1704
7066 30 1705
7067 30 1706
7070 30 1707
7071 30 1708
7072 30 1709
7073 30 1710
7074 30 1711
7075 30 1712
7081 30 1713
7083 30 1714
7086 30 1715
7087 30 1716
7094 30 1717
7095 30 1718
7114 30 1719
7119 30 1720
7120 30 1721
7124 30 1722
7126 30 1723
7127 30 1724
7131 30 1725
7133 30 1726
7138 30 1727
7142 30 1728
7143 30 1729
7145 30 1730
7151 30 1731
7153 30 1732
7154 30 1733
7156 30 1734
7158 30 1735
7159 30 1736
7165 30 1737
7174 30 1738
7178 30 1739
7180 30 1740
7186 30 1741
7187 30 1742
7192 30 1743
7193 30 1744
7195 30 1745
7200 30 1746
7201 30 1747
7203 30 1748
7206 30 1749
7209 30 1750
7222 30 1751
7226 30 1752
7228 30 1753
7233 30 1754
7237 30 1755
7238 30 1756
7240 30 1757
7243 30 1758
7244 30 1759
7245 30 1760
7246 30 1761
7256 30 1762
7260 30 1763
7261 30 1764
7265 30 1765
7271 30 1766
7275 30 1767
7282 30 1768
7286 30 1769
7294 30 1770
7302 30 1771
7307 30 1772
7309 30 1773
7315 30 1774
7317 30 1775
7318 30 1776
7320 30 1777
7331 30 1778
7335 30 1779
7336 30 1780
7338 30 1781
7346 30 1782
7348 30 1783
7349 30 1784
7350 30 1785
7353 30 1786
7354 30 1787
7358 30 1788
7360 30 1789
7361 30 1790
7362 30 1791
7367 30 1792
7369 30 1793
7371 30 1794
7378 30 1795
7384 30 1796
7386 30 1797
7392 30 1798
7395 30 1799
7396 30 1800
7397 30 1801
7399 30 1802
7406 30 1803
7407 30 1804
7408 30 1805
7409 30 1806
7418 30 1807
7422 30 1808
7423 30 1809
7424 30 1810
7426 30 1811
7427 30 1812
7429 30 1813
7438 30 1814
7439 30 1815
7443 30 1816
7449 30 1817
7450 30 1818
7460 30 1819
7467 30 1820
7475 30 1821
7488 30 1822
7499 30 1823
7506 30 1824
7510 30 1825
7513 30 1826
7516 30 1827
7519 30 1828
7524 30 1829
7533 30 1830
7541 30 1831
7548 30 1832
7552 30 1833
7567 30 1834
7569 30 1835
7571 30 1836
7573 30 1837
7596 30 1838
7607 30 1839
7611 30 1840
7613 30 1841
7632 30 1842
7641 30 1843
7651 30 1844
7673 30 1845
7680 30 1846
7707 30 1847
7716 30 1848
7719 30 1849
7725 30 1850
7743 30 1851
7755 30 1852
7756 30 1853
7760 30 1854
7764 30 1855
7768 30 1856
7786 30 1857
7796 30 1858
7824 30 1859
7826 30 1860
7845 30 1861
7850 30 1862
7866 30 1863
7867 30 1864
7881 30 1865
7883 30 1866
7901 30 1867
7910 30 1868
7921 30 1869
7923 30 1870
7924 30 1871
7932 30 1872
8011 30 1873
8023 30 1874
8028 30 1875
8032 30 1876
8045 30 1877
8072 30 1878
8089 30 1879
8098 30 1880
8112 30 1881
8121 30 1882
8127 30 1883
8148 30 1884
8151 30 1885
8164 30 1886
8189 30 1887
8195 30 1888
8208 30 1889
8241 30 1890
8245 30 1891
8247 30 1892
8275 30 1893
8278 30 1894
8286 30 1895
8288 30 1896
8313 30 1897
8341 30 1898
8355 30 1899
8365 30 1900
8372 30 1901
8374 30 1902
8376 30 1903
8379 30 1904
8380 30 1905
8385 30 1906
8386 30 1907
8390 30 1908
8392 30 1909
8393 30 1910
8395 30 1911
8406 30 1912
8412 30 1913
8415 30 1914
8419 30 1915
8420 30 1916
8424 30 1917
8427 30 1918
8428 30 1919
8430 30 1920
8431 30 1921
8440 30 1922
8443 30 1923
8446 30 1924
8448 30 1925
8454 30 1926
8457 30 1927
8460 30 1928
8468 30 1929
8469 30 1930
8470 30 1931
8471 30 1932
8480 30 1933
8482 30 1934
8485 30 1935
8494 30 1936
8495 30 1937
8496 30 1938
8498 30 1939
8499 30 1940
8500 30 1941
8501 30 1942
8504 30 1943
8506 30 1944
8511 30 1945
8513 30 1946
8514 30 1947
8515 30 1948
8518 30 1949
8519 30 1950
8520 30 1951
8521 30 1952
8528 30 1953
8529 30 1954
8546 30 1955
8547 30 1956
8549 30 1957
8551 30 1958
8558 30 1959
8560 30 1960
8562 30 1961
8563 30 1962
8564 30 1963
8566 30 1964
8570 30 1965
8572 30 1966
8578 30 1967
8586 30 1968
8597 30 1969
8602 30 1970
8609 30 1971
8611 30 1972
8614 30 1973
8618 30 1974
8621 30 1975
8625 30 1976
8626 30 1977
8627 30 1978
8630 30 1979
8632 30 1980
8636 30 1981
8638 30 1982
8641 30 1983
8642 30 1984
8643 30 1985
8644 30 1986
8646 30 1987
8648 30 1988
8654 30 1989
8656 30 1990
8657 30 1991
8659 30 1992
8660 30 1993
8663 30 1994
8664 30 1995
8667 30 1996
8672 30 1997
8676 30 1998
8677 30 1999
8679 30 2000
8682 30 2001
8685 30 2002
8692 30 2003
8693 30 2004
8701 30 2005
8702 30 2006
8704 30 2007
8705 30 2008
8706 30 2009
8707 30 2010
8708 30 2011
8709 30 2012
8710 30 2013
8712 30 2014
8715 30 2015
8717 30 2016
8721 30 2017
8722 30 2018
8723 30 2019
8726 30 2020
8727 30 2021
8728 30 2022
8733 30 2023
8736 30 2024
8739 30 2025
8742 30 2026
8746 30 2027
8747 30 2028
8748 30 2029
8749 30 2030
8757 30 2031
8761 30 2032
8770 30 2033
8771 30 2034
8774 30 2035
8776 30 2036
8777 30 2037
8779 30 2038
8783 30 2039
8785 30 2040
8786 30 2041
8787 30 2042
8788 30 2043
8789 30 2044
8793 30 2045
8796 30 2046
8798 30 2047
8799 30 2048
8803 30 2049
8807 30 2050
8810 30 2051
8812 30 2052
8817 30 2053
8818 30 2054
8820 30 2055
8822 30 2056
8825 30 2057
8826 30 2058
8827 30 2059
8831 30 2060
8832 30 2061
8833 30 2062
8834 30 2063
8842 30 2064
8845 30 2065
8847 30 2066
8850 30 2067
8853 30 2068
8854 30 2069
8856 30 2070
8858 30 2071
8860 30 2072
8861 30 2073
8867 30 2074
8868 30 2075
8875 30 2076
8876 30 2077
8878 30 2078
8879 30 2079
8880 30 2080
8882 30 2081
8887 30 2082
8891 30 2083
8896 30 2084
8898 30 2085
8904 30 2086
8905 30 2087
8909 30 2088
8910 30 2089
8912 30 2090
8914 30 2091
8916 30 2092
8918 30 2093
8926 30 2094
8928 30 2095
8930 30 2096
8931 30 2097
8932 30 2098
8933 30 2099
8936 30 2100
8939 30 2101
8940 30 2102
8942 30 2103
8943 30 2104
8944 30 2105
8945 30 2106
8946 30 2107
8947 30 2108
8951 30 2109
8954 30 2110
8956 30 2111
8957 30 2112
8960 30 2113
8962 30 2114
8963 30 2115
8964 30 2116
8965 30 2117
8966 30 2118
8967 30 2119
8968 32 2120
8971 30 2121
8972 30 2122
8974 30 2123
8979 30 2124
8984 30 2125
8985 30 2126
8987 30 2127
8989 30 2128
9001 30 2129
9006 30 2130
9010 30 2131
9011 30 2132
9013 30 2133
9014 30 2134
9017 30 2135
9020 30 2136
9023 30 2137
9024 30 2138
9026 30 2139
9027 30 2140
9028 30 2141
9031 30 2142
9039 30 2143
9040 30 2144
9041 30 2145
9047 30 2146
9054 30 2147
9056 30 2148
9057 30 2149
9065 30 2150
9073 30 2151
9079 30 2152
9084 30 2153
9086 30 2154
9087 30 2155
9090 30 2156
9091 30 2157
9098 30 2158
9102 30 2159
9106 30 2160
9114 30 2161
9116 30 2162
9119 30 2163
9123 30 2164
9128 30 2165
9135 30 2166
9137 30 2167
9138 30 2168
9144 30 2169
9149 30 2170
9150 30 2171
9151 30 2172
9152 32 2173
9155 30 2174
9156 30 2175
9158 30 2176
9162 30 2177
9165 30 2178
9166 30 2179
9168 30 2180
9176 30 2181
9177 30 2182
9178 30 2183
9179 30 2184
9183 30 2185
9184 30 2186
9187 30 2187
9192 30 2188
9194 30 2189
9198 30 2190
9206 30 2191
9210 30 2192
9211 30 2193
9213 30 2194
9240 30 2195
9245 30 2196
9246 30 2197
9256 32 2198
9275 30 2199
9276 30 2200
9277 30 2201
9288 30 2202
9290 30 2203
9297 30 2204
9302 30 2205
9315 30 2206
9341 30 2207
9362 30 2208
9401 30 2209
9456 30 2210
9533 30 2211
9542 30 2212
9570 30 2213
9601 30 2214
9610 30 2215
9646 30 2216
9669 30 2217
9672 30 2218
9678 30 2219
9680 30 2220
9682 30 2221
9685 30 2222
9687 30 2223
9689 30 2224
9693 30 2225
9697 30 2226
9698 30 2227
9700 30 2228
9701 30 2229
9705 30 2230
9711 30 2231
9712 30 2232
9713 30 2233
9714 30 2234
9718 30 2235
9719 30 2236
9720 30 2237
9722 30 2238
9728 30 2239
9729 30 2240
9730 30 2241
9731 30 2242
9733 30 2243
9737 30 2244
9739 30 2245
9742 30 2246
9755 30 2247
9758 30 2248
9761 30 2249
9768 30 2250
9769 30 2251
9787 30 2252
9789 30 2253
9790 30 2254
9794 30 2255
9797 30 2256
9798 30 2257
9807 30 2258
9808 30 2259
9810 30 2260
9812 30 2261
9818 30 2262
9821 30 2263
9830 30 2264
9840 31 2265
9841 30 2266
9843 30 2267
9848 30 2268
9850 30 2269
9864 30 2270
9874 30 2271
9878 30 2272
9886 30 2273
9902 30 2274
9910 30 2275
9915 30 2276
9917 30 2277
9918 30 2278
9921 30 2279
9923 30 2280
9924 30 2281
9926 30 2282
9927 30 2283
9929 30 2284
9935 30 2285
9944 30 2286
9945 30 2287
9946 30 2288
9950 30 2289
9962 30 2290
9965 30 2291
9967 30 2292
9979 30 2293
9983 30 2294
9984 30 2295
9986 30 2296
9987 30 2297
10000 30 2298
10001 30 2299
10003 30 2300
10006 30 2301
10008 30 2302
10010 30 2303
10014 30 2304
10015 30 2305
10016 30 2306
10021 30 2307
10023 30 2308
10025 30 2309
10028 30 2310
10029 30 2311
10032 30 2312
10033 30 2313
10036 30 2314
10042 30 2315
10044 30 2316
10047 30 2317
10050 30 2318
10055 30 2319
10059 30 2320
10060 30 2321
10062 30 2322
10070 30 2323
10071 30 2324
10073 30 2325
10077 30 2326
10080 30 2327
10082 30 2328
10083 30 2329
10085 30 2330
10086 30 2331
10087 30 2332
10089 30 2333
10090 30 2334
10093 30 2335
10095 30 2336
10096 30 2337
10102 30 2338
10108 30 2339
10111 30 2340
10117 30 2341
10127 30 2342
10130 30 2343
10132 30 2344
10134 30 2345
10135 30 2346
10143 30 2347
10144 30 2348
10149 30 2349
10156 30 2350
10157 30 2351
10159 30 2352
10160 30 2353
10163 30 2354
10167 30 2355
10173 30 2356
10174 30 2357
10175 30 2358
10176 30 2359
